STA 101L - Summer I 2022 - Inference for means
…
Exercise 20.1

01:30

Example – two class exams

A professor considers two designs for an exam. Are the two types of exam equally difficult?

d <- openintro::classdata %>% 
  filter(lecture %in% c("a", "b")) %>%
  rename(score = m1, exam = lecture)
d

# A tibble: 113 x 2
   score exam 
   <dbl> <fct>
 1    67 a    
 2    59 a    
 3   100 a    
 4    81 a    
 5    80 a    
 6    63 a    
 7   100 a    
 8    44 a    
 9    82 a    
10    67 a    
# ... with 103 more rows
…
d_sim <- d %>% mutate(score = sample(score)) # shuffle the scores
d_sim

# A tibble: 113 x 2
   score exam 
   <dbl> <fct>
 1    67 a    
 2    93 a    
 3    82 a    
 4    82 a    
 5    70 a    
 6    82 a    
 7    66 a    
 8    84 a    
 9    50 a    
10    64 a    
# ... with 103 more rows
…
Bootstrap in R

sample_observed_a <- d %>% filter(exam == "a")
sample_observed_b <- d %>% filter(exam == "b")

set.seed(0)
sample_bootstrap(sample_observed_a) # bootstrap sample

# A tibble: 58 x 2
   score exam 
   <dbl> <fct>
 1    58 a    
 2    59 a    
 3    81 a    
 4    71 a    
 5    67 a    
 6    58 a    
 7    80 a    
 8    72 a    
 9    58 a    
10    72 a    
# ... with 48 more rows

sample_bootstrap(sample_observed_b) # bootstrap sample

# A tibble: 55 x 2
   score exam 
   <dbl> <fct>
 1    61 b    
 2    83 b    
 3    68 b    
 4    71 b    
 5    82 b    
 6    46 b    
 7    78 b    
 8    72 b    
 9    64 b    
10    83 b    
# ... with 45 more rows
…
