STA 101L - Summer I 2022 - Simple Linear Regression Models
…
This format contains the information necessary for doing inference and is easy to read. This is the format used the textbook.

Exploring the model

The command augment from the R package broom gives us the residuals (.resid) and predictions (.fitted).

library(broom)
m <- lm(hwy ~ cty, data = d)
augment(m)[,1:4]

# A tibble: 234 x 4
     hwy   cty .fitted .resid
   <int> <int>   <dbl>  <dbl>
 1    29    18    25.0 4.03  
 2    29    21    29.0 0.0214
 3    31    20    27.6 3.36  
 4    30    21    29.0 1.02  
 5    26    16    22.3 3.71  
 6    26    18    25.0 1.03  
 7    27    18    25.0 2.03  
 8    26    18    25.0 1.03  
 9    25    16    22.3 2.71  
10    28    20    27.6 0.359 
# ... with 224 more rows
…
