STA 101L - Summer I 2022 - Inference for regression
…
Confidence interval via bootstrap

Bootstrap

sample_bootstrap <- function(data){ # same function as before
  n                <- nrow(data)
  sample_bootstrap <- slice_sample(data, n = n, replace = TRUE)
  return(sample_bootstrap)
}

set.seed(0)
sample_bootstrap(d)

# A tibble: 100 x 2
   weight mother_age
    <dbl>      <dbl>
 1   7.44         35
 2   6.83         30
 3   5.3          29
 4   6.94         27
 5   5.07         23
 6   6.03         24
 7   6.44         26
 8   7.44         35
 9   7.13         33
10   7.25         23
# ... with 90 more rows
…
