STA 101L - Summer I 2022 - Logistic Regression
…
Data

d <- as_tibble(heart_transplant)
d

# A tibble: 103 x 8
      id acceptyear   age survived survtime prior transplant  wait
   <int>      <int> <int> <fct>       <int> <fct> <fct>      <int>
 1    15         68    53 dead            1 no    control       NA
 2    43         70    43 dead            2 no    control       NA
 3    61         71    52 dead            2 no    control       NA
 4    75         72    52 dead            2 no    control       NA
 5     6         68    54 dead            3 no    control       NA
 6    42         70    36 dead            3 no    control       NA
 7    54         71    47 dead            3 no    control       NA
 8    38         70    41 dead            5 no    treatment      5
 9    85         73    47 dead            5 no    control       NA
10     2         68    51 dead            6 no    control       NA
# ... with 93 more rows
…
To fit a logistic regression model in R, use the command glm (not lm) with the argument family set to binomial.

Interpretation

A positive coefficient estimate indicates that a higher value of the predictor is associated with a higher probability of success; and vice-versa for a smaller value.

In our case, the coefficient estimate for age (-0.058) is negative, so the model indicates that older participants have a smaller probability of surviving.

Visualizing the regression curve

d_augm <- augment(m, type.predict = "response")
d_augm # .fitted is equivalent to p_hat 

# A tibble: 103 x 8
   is_alive   age .fitted .resid .std.resid   .hat .sigma .cooksd
      <dbl> <int>   <dbl>  <dbl>      <dbl>  <dbl>  <dbl>   <dbl>
 1        0    53   0.177 -0.625     -0.630 0.0156   1.06 0.00174
 2        0    43   0.279 -0.809     -0.813 0.0106   1.06 0.00210
 3        0    52   0.186 -0.642     -0.646 0.0147   1.06 0.00173
 4        0    52   0.186 -0.642     -0.646 0.0147   1.06 0.00173
 5        0    54   0.169 -0.608     -0.614 0.0166   1.06 0.00175
 6        0    36   0.368 -0.958     -0.967 0.0181   1.06 0.00548
 7        0    47   0.234 -0.731     -0.735 0.0111   1.06 0.00174
 8        0    41   0.303 -0.850     -0.855 0.0115   1.06 0.00257
 9        0    47   0.234 -0.731     -0.735 0.0111   1.06 0.00174
10        0    51   0.195 -0.659     -0.663 0.0138   1.06 0.00172
# ... with 93 more rows
…
Extending the regression curve

#artificial data with larger range (0 to 100)
d_artificial <- tibble(age = seq(0, 100, by = 0.1))
p_hat <- predict(m, newdata = d_artificial, type = "response")

d_artificial <- mutate(d_artificial, p_hat = p_hat)
d_artificial

# A tibble: 1,001 x 2
     age p_hat
   <dbl> <dbl>
 1   0   0.827
 2   0.1 0.826
 3   0.2 0.825
 4   0.3 0.824
 5   0.4 0.824
 6   0.5 0.823
 7   0.6 0.822
 8   0.7 0.821
 9   0.8 0.820
10   0.9 0.819
# ... with 991 more rows
…
You do not need to do parts a and b.

04:00

Artificial data

d_artificial <- expand.grid(
  age = seq(0, 100, by = 0.1),
  transplant = c("treatment", "control")
  ) %>%
  as_tibble() %>%
  arrange(age)
d_artificial

# A tibble: 2,002 x 2
     age transplant
   <dbl> <fct>     
 1   0   treatment 
 2   0   control   
 3   0.1 treatment 
 4   0.1 control   
 5   0.2 treatment 
 6   0.2 control   
 7   0.3 treatment 
 8   0.3 control   
 9   0.4 treatment 
10   0.4 control   
# ... with 1,992 more rows
…
Prediction

d_augm <- augment(m2, type.predict = "response") %>%
  mutate(is_alive_hat = if_else(.fitted < 0.5, 0, 1)) %>%
  select(is_alive, age, transplant, .fitted, is_alive_hat)
d_augm

# A tibble: 103 x 5
   is_alive   age transplant .fitted is_alive_hat
      <dbl> <int> <fct>        <dbl>        <dbl>
 1        0    53 control     0.0443            0
 2        0    43 control     0.0904            0
 3        0    52 control     0.0476            0
 4        0    52 control     0.0476            0
 5        0    54 control     0.0412            0
 6        0    36 control     0.145             0
 7        0    47 control     0.0682            0
 8        0    41 treatment   0.418             0
 9        0    47 control     0.0682            0
10        0    51 control     0.0512            0
# ... with 93 more rows
…
