STA 101L - Summer I 2022 - rmd_demo
…
d <- palmerpenguins::penguins

filter(d,  is.na(body_mass_g)) # keeps the rows with a missing value for body_mass_g

# A tibble: 2 x 8
  species island bill_length_mm bill_depth_mm flipper_length_~ body_mass_g sex  
  <fct>   <fct>           <dbl>         <dbl>            <int>       <int> <fct>
1 Adelie  Torge~             NA            NA               NA          NA <NA> 
2 Gentoo  Biscoe             NA            NA               NA          NA <NA> 
# ... with 1 more variable: year <int>

filter(d, !is.na(body_mass_g)) # keeps the rows without a missing value for body_mass_g

# A tibble: 342 x 8
   species island    bill_length_mm bill_depth_mm flipper_length_mm body_mass_g
   <fct>   <fct>              <dbl>         <dbl>             <int>       <int>
 1 Adelie  Torgersen           39.1          18.7               181        3750
 2 Adelie  Torgersen           39.5          17.4               186        3800
 3 Adelie  Torgersen           40.3          18                 195        3250
 4 Adelie  Torgersen           36.7          19.3               193        3450
 5 Adelie  Torgersen           39.3          20.6               190        3650
 6 Adelie  Torgersen           38.9          17.8               181        3625
 7 Adelie  Torgersen           39.2          19.6               195        4675
 8 Adelie  Torgersen           34.1          18.1               193        3475
 9 Adelie  Torgersen           42            20.2               190        4250
10 Adelie  Torgersen           37.8          17.1               186        3300
# ... with 332 more rows, and 2 more variables: sex <fct>, year <int>
…
