STA 101L - Summer I 2022 - HW 1 - Introduction to data
…
Exercise 4 (4 points)

Insert any text here.

present

# A tibble: 63 x 3
    year    boys   girls
   <dbl>   <dbl>   <dbl>
 1  1940 1211684 1148715
 2  1941 1289734 1223693
 3  1942 1444365 1364631
 4  1943 1508959 1427901
 5  1944 1435301 1359499
 6  1945 1404587 1330869
 7  1946 1691220 1597452
 8  1947 1899876 1800064
 9  1948 1813852 1721216
10  1949 1826352 1733177
# ... with 53 more rows
…
nrow(present)

[1] 63

ncol(present)

[1] 3

dim(present)

[1] 63  3

present

# A tibble: 63 x 3
    year    boys   girls
   <dbl>   <dbl>   <dbl>
 1  1940 1211684 1148715
 2  1941 1289734 1223693
 3  1942 1444365 1364631
 4  1943 1508959 1427901
 5  1944 1435301 1359499
 6  1945 1404587 1330869
 7  1946 1691220 1597452
 8  1947 1899876 1800064
 9  1948 1813852 1721216
10  1949 1826352 1733177
# ... with 53 more rows
…
Exercise 7 (5 points)

Insert any text here.

present %>%
  mutate(total = boys + girls) %>%
  arrange(desc(total))

# A tibble: 63 x 4
    year    boys   girls   total
   <dbl>   <dbl>   <dbl>   <dbl>
 1  1961 2186274 2082052 4268326
 2  1960 2179708 2078142 4257850
 3  1957 2179960 2074824 4254784
 4  1959 2173638 2071158 4244796
 5  1958 2152546 2051266 4203812
 6  1962 2132466 2034896 4167362
 7  1956 2133588 2029502 4163090
 8  1990 2129495 2028717 4158212
 9  1991 2101518 2009389 4110907
10  1963 2101632 1996388 4098020
# ... with 53 more rows
…
